|email za password: firefox2                                                                                               |
|----------------------------------------------------------------------------------------------------|
|dmitri.haque@gmail.com                                                                              |
|leshia.bar-yosef@gmail.com                                                                          |
|korrie.hawkes@gmail.com                                                                             |
|kenton.rindone@gmail.com                                                                            |
|freddie.goldfarb@gmail.com                                                                          |
|damita.luca@gmail.com                                                                               |
|raymond.southey@gmail.com                                                                           |
|deloria.oh@gmail.com                                                                                |
|nike.valdez@gmail.com                                                                               |
|laila.frenkel@gmail.com                                                                             |
|moishe.dale@gmail.com                                                                               |
|shaw.sinha@gmail.com                                                                                |
|hanson.goldizen@gmail.com                                                                           |
|rafaela.lazonick@gmail.com                                                                          |
|eve.mussino@gmail.com                                                                               |
|jean-marc.kunkel@gmail.com                                                                          |
|vladimir.martochio@gmail.com                                                                        |
|thibaut.pellichero@gmail.com                                                                        |
|creighton.bruley@gmail.com                                                                          |
|jephthah.perloff@gmail.com                                                                          |
|brian.trevor-roper@gmail.com                                                                        |
|doris.moiamedi@gmail.com                                                                            |
|garvin.avrett@gmail.com                                                                             |
|teresa.tobin@gmail.com                                                                              |
|jeana.scholl@gmail.com                                                                              |
|gaby.wollstonecraft@gmail.com                                                                       |
|zary.sugino@gmail.com                                                                               |
|benito.klevmarken@gmail.com                                                                         |
|quint.monaghan@gmail.com                                                                            |
|costa.worobey@gmail.com                                                                             |
|geri.polumbaum@gmail.com                                                                            |
|gabie.fowler@gmail.com                                                                              |
|mugsy.rutigliano@gmail.com                                                                          |
|kirsten.pelikan@gmail.com                                                                           |
|yankee.byerly@gmail.com                                                                             |
|laurie.cote@gmail.com                                                                               |
|fan.dhar@gmail.com                                                                                  |
|wheeler.patrice@gmail.com                                                                           |
|rodge.torsney@gmail.com                                                                             |
|geo.chiappini@gmail.com                                                                             |
|ichabod.pennazza@gmail.com                                                                          |
|edmund.esters@gmail.com                                                                             |
|hulda.gamblin@gmail.com                                                                             |
|aura.labs@gmail.com                                                                                 |
|townie.patel@gmail.com                                                                              |
|roze.landers@gmail.com                                                                              |
|berke.stephanian@gmail.com                                                                          |
|abigael.logan@gmail.com                                                                             |
|melonie.schoell@gmail.com                                                                           |
|briggs.atwater@gmail.com                                                                            |
|eolande.dasse@gmail.com                                                                             |
|patel.grossman@gmail.com                                                                            |
|shimon.alongi@gmail.com                                                                             |
|chancey.rudd@gmail.com                                                                              |
|seana.hudner@gmail.com                                                                              |
|rudie.jain@gmail.com                                                                                |
|francis.freling@gmail.com                                                                           |
|shaylyn.mathews-roth@gmail.com                                                                      |
|selene.wypij@gmail.com                                                                              |
|lenard.allen@gmail.com                                                                              |
|jessica.cline@gmail.com                                                                             |
|sheryl.rosenblatt@gmail.com                                                                         |
|abel.sawyer@gmail.com                                                                               |
|simone.ackerman@gmail.com                                                                           |
|tobit.farren@gmail.com                                                                              |
|carlita.alianiello@gmail.com                                                                        |
|floria.mckenna@gmail.com                                                                            |
|zitella.carroll@gmail.com                                                                           |
|ronnie.elston@gmail.com                                                                             |
|kris.cezeaux@gmail.com                                                                              |
|tharen.philbert@gmail.com                                                                           |
|cornellis.donne@gmail.com                                                                           |
|blaine.procter@gmail.com                                                                            |
|niall.cutler@gmail.com                                                                              |
|maurie.cowpertwait@gmail.com                                                                        |
|heida.gerber@gmail.com                                                                              |
|cobby.mckay@gmail.com                                                                               |
|meghann.handcock@gmail.com                                                                          |
|milissent.winig@gmail.com                                                                           |
|claire.westerhouse@gmail.com                                                                        |
|marjie.larson@gmail.com                                                                             |
|rocky.von_hoffman@gmail.com                                                                         |
|abbie.rowe@gmail.com                                                                                |
|kendall.lees@gmail.com                                                                              |
|sadella.lussier@gmail.com                                                                           |
|keeley.salgado@gmail.com                                                                            |
|wayland.torpey@gmail.com                                                                            |
|tobye.mccoy@gmail.com                                                                               |
|carlyle.cecchini@gmail.com                                                                          |
|emogene.arrellanes@gmail.com                                                                        |
|dustin.train@gmail.com                                                                              |
|caril.vagts@gmail.com                                                                               |
|harrold.boggs@gmail.com                                                                             |
|alexia.steinem@gmail.com                                                                            |
|abbi.bader@gmail.com                                                                                |
|valentin.allain@gmail.com                                                                           |
|rana.risher@gmail.com                                                                               |
|lemmy.johnsson@gmail.com                                                                            |
|ollie.riccio@gmail.com                                                                              |
|alden.cleaves@gmail.com                                                                             |
|kai.line@gmail.com                                                                                  |
|joletta.dressel@gmail.com                                                                           |
|lura.carvalho@gmail.com                                                                             |
|sterling.mickiewicz@gmail.com                                                                       |
|domenico.waddington@gmail.com                                                                       |
|demetra.talhouni@gmail.com                                                                          |
|reynard.mossmann@gmail.com                                                                          |
|blanca.kasser@gmail.com                                                                             |
|clyde.fabbris@gmail.com                                                                             |
|paulo.rindos@gmail.com                                                                              |
|davey.wigner@gmail.com                                                                              |
|sibylle.mcnamara@gmail.com                                                                          |
|abdel.rudikoff@gmail.com                                                                            |
|brynne.avila@gmail.com                                                                              |
|koren.basterfield@gmail.com                                                                         |
|nicky.spino@gmail.com                                                                               |
|kaitlyn.petrarch@gmail.com                                                                          |
|kirby.oshea@gmail.com                                                                               |
|joli.fernandez_cifuentes@gmail.com                                                                  |
|broddie.gori@gmail.com                                                                              |
|idaline.mendis@gmail.com                                                                            |
|andri.novio@gmail.com                                                                               |
|gussi.mehra@gmail.com                                                                               |
|fons.bunton@gmail.com                                                                               |
|quintus.fregoso@gmail.com                                                                           |
|dell.treverton@gmail.com                                                                            |
|lari.lidano@gmail.com                                                                               |
|sebastiano.spann@gmail.com                                                                          |
|gerti.muir@gmail.com                                                                                |
|shilpa.chung@gmail.com                                                                              |
|trixi.nevelson@gmail.com                                                                            |
|clancy.willemsen@gmail.com                                                                          |
|dot.faith@gmail.com                                                                                 |
|abdul.teitz@gmail.com                                                                               |
|konstance.leviten@gmail.com                                                                         |
|damaris.broun@gmail.com                                                                             |
|jillie.chagnon@gmail.com                                                                            |
|chase.von_der_lippe@gmail.com                                                                       |
|cissy.unger@gmail.com                                                                               |
|jerome.cheang@gmail.com                                                                             |
|finn.rhodes@gmail.com                                                                               |
|slade.blendon@gmail.com                                                                             |
|golda.miao@gmail.com                                                                                |
|alphonso.pledger@gmail.com                                                                          |
|ellwood.peale@gmail.com                                                                             |
|shep.friesen@gmail.com                                                                              |
|shlomo.bergson@gmail.com                                                                            |
|james.steedly@gmail.com                                                                             |
|emmalynn.sinsheimer@gmail.com                                                                       |
|sully.wallington@gmail.com                                                                          |
|keslie.vidra@gmail.com                                                                              |
|helen.buckwalter@gmail.com                                                                          |
|tate.hervey@gmail.com                                                                               |
|maurene.omundsen@gmail.com                                                                          |
|rustie.veblen@gmail.com                                                                             |
|harmonia.alvarez@gmail.com                                                                          |
|saxon.gozzi@gmail.com                                                                               |
|kirsti.drain@gmail.com                                                                              |
|dieter.wentzell@gmail.com                                                                           |
|mika.rasanen@gmail.com                                                                              |
|josi.pagano@gmail.com                                                                               |
|allin.trout@gmail.com                                                                               |
|marys.callaghan@gmail.com                                                                           |
|annice.couch@gmail.com                                                                              |
|zita.dubie@gmail.com                                                                                |
|astrid.kubiak@gmail.com                                                                             |
|tedra.cattano@gmail.com                                                                             |
|sasha.chang@gmail.com                                                                               |
|cara.bartoo@gmail.com                                                                               |
|tammy.levinson@gmail.com                                                                            |
|merril.dockery@gmail.com                                                                            |
|antin.woog@gmail.com                                                                                |
|ava.frank@gmail.com                                                                                 |
|merissa.ristich@gmail.com                                                                           |
|sussi.brilla@gmail.com                                                                              |
|thorny.mohammadzadeh@gmail.com                                                                      |
|stormie.cluff@gmail.com                                                                             |
|alonzo.hoppe@gmail.com                                                                              |
|jude.andel@gmail.com                                                                                |
|thaddus.mattis@gmail.com                                                                            |
|shelley.keohan@gmail.com                                                                            |
|osbourn.handel@gmail.com                                                                            |
|marlee.litwin@gmail.com                                                                             |
|puff.vito@gmail.com                                                                                 |
|guy.ibarra@gmail.com                                                                                |
|sutherland.stepkowski@gmail.com                                                                     |
|bronson.maccurtain@gmail.com                                                                        |
|dyson.metiu@gmail.com                                                                               |
|russ.joujoute@gmail.com                                                                             |
|sheri.van_speybroeck@gmail.com                                                                      |
|kalle.papineau@gmail.com                                                                            |
|raymund.caratozzolo@gmail.com                                                                       |
|ashli.line@gmail.com                                                                                |
|deloria.brewster@gmail.com                                                                          |
|kerrie.dowey@gmail.com                                                                              |
|arlo.von_salis@gmail.com                                                                            |
|chester.casady@gmail.com                                                                            |
|darin.khemani@gmail.com                                                                             |
|urban.burleson@gmail.com                                                                            |
|lawrence.stewart@gmail.com                                                                          |
|cyrill.clear@gmail.com                                                                              |
|reube.bolman@gmail.com                                                                              |
|orrin.helgeson@gmail.com                                                                            |
|laurance.latcham@gmail.com                                                                          |
|sloan.neill@gmail.com                                                                               |
|maximilien.lindemann@gmail.com                                                                      |
|rad.politi@gmail.com                                                                                |
|belvia.circone@gmail.com                                                                            |
|emmye.rabkin@gmail.com                                                                              |
|rhiamon.ruback@gmail.com                                                                            |
|luisa.tsuda@gmail.com                                                                               |
|kai.shostak@gmail.com                                                                               |
|sherlocke.inniss@gmail.com                                                                          |
|marcelo.chadbourne@gmail.com                                                                        |
|ava.toso@gmail.com                                                                                  |
|berri.keyes@gmail.com                                                                               |
|yolande.rochon@gmail.com                                                                            |
|rikki.monson@gmail.com                                                                              |
|teresina.breaux@gmail.com                                                                           |
|hans-peter.wesson@gmail.com                                                                         |
|rebecka.burnley@gmail.com                                                                           |
|giorgia.mazzeo@gmail.com                                                                            |
|meriel.cambanis@gmail.com                                                                           |
|rae.aguirre@gmail.com                                                                               |
|darya.tremblay@gmail.com                                                                            |
|joanne.mesrobian@gmail.com                                                                          |
|bertha.stallman@gmail.com                                                                           |
|la.hanssen@gmail.com                                                                                |
|jordana.kerman@gmail.com                                                                            |
|ellene.hayes@gmail.com                                                                              |
|marena.tanenbaum@gmail.com                                                                          |
|richy.hubbard@gmail.com                                                                             |
|minni.gherardini@gmail.com                                                                          |
|josselyn.duckworth@gmail.com                                                                        |
|joaquin.bebbington@gmail.com                                                                        |
|rahal.georgi@gmail.com                                                                              |
|thom.burr@gmail.com                                                                                 |
|zena.ocougne@gmail.com                                                                              |
|honor.grimmesey@gmail.com                                                                           |
|rosamond.kulldorff@gmail.com                                                                        |
|barbra.joung@gmail.com                                                                              |
|rodge.marlink@gmail.com                                                                             |
|normie.nicoloro@gmail.com                                                                           |
|joanne.lessi@gmail.com                                                                              |
|moyna.nakae@gmail.com                                                                               |
|ritch.predetti@gmail.com                                                                            |
|marcy.miner@gmail.com                                                                               |
|shayne.croxen@gmail.com                                                                             |
|adeline.deas@gmail.com                                                                              |
|raj.celant@gmail.com                                                                                |
|benito.wilkening@gmail.com                                                                          |
|dulsea.austad@gmail.com                                                                             |
|clifford.pun@gmail.com                                                                              |
|betti.drabek@gmail.com                                                                              |
|elayne.palerm@gmail.com                                                                             |
|welch.merseth@gmail.com                                                                             |
|murial.dickinson@gmail.com                                                                          |
|alf.yuan@gmail.com                                                                                  |
|alameda.gruner@gmail.com                                                                            |
|spense.esser@gmail.com                                                                              |
|zollie.mcgrail@gmail.com                                                                            |
|kipp.chabris@gmail.com                                                                              |
|otha.ting@gmail.com                                                                                 |
|jessie.barsky@gmail.com                                                                             |
|isador.luberoff@gmail.com                                                                           |
|freddy.ball@gmail.com                                                                               |
|town.thernstrom@gmail.com                                                                           |
|carol.cromie@gmail.com                                                                              |
|coral.zacharellis@gmail.com                                                                         |
|madelyn.sala@gmail.com                                                                              |
|canada.heanue@gmail.com                                                                             |
|emili.rabin@gmail.com                                                                               |
|kelci.brain@gmail.com                                                                               |
|elsy.coogan@gmail.com                                                                               |
|elisabet.adorno@gmail.com                                                                           |
|norry.einstein@gmail.com                                                                            |
|tyrone.beattie@gmail.com                                                                            |
|gideon.schiano@gmail.com                                                                            |
|derick.pena@gmail.com                                                                               |
|town.berlioz@gmail.com                                                                              |
|ludvig.shibata@gmail.com                                                                            |
|tanney.carasa@gmail.com                                                                             |
|steward.kooris@gmail.com                                                                            |
|ruthy.rizzuto@gmail.com                                                                             |
|germaine.royer@gmail.com                                                                            |
|barn.gelinas@gmail.com                                                                              |
|deina.lima@gmail.com                                                                                |
|jon.oneal@gmail.com                                                                                 |
|cyrill.venzor@gmail.com                                                                             |
|meier.barnaby@gmail.com                                                                             |
|celestina.semenza@gmail.com                                                                         |
|thatcher.tuominen@gmail.com                                                                         |
|mitch.nygaard@gmail.com                                                                             |
|bobine.torsney@gmail.com                                                                            |
|janeczka.lincoln@gmail.com                                                                          |
|kaleena.levoff@gmail.com                                                                            |
|romain.vorperian@gmail.com                                                                          |
|jefferey.bazil@gmail.com                                                                            |
|lottie.studier@gmail.com                                                                            |
|eugine.capone@gmail.com                                                                             |
|collin.mohanram@gmail.com                                                                           |
|enriqueta.vargas@gmail.com                                                                          |
|jennilee.de_la_pena@gmail.com                                                                       |
|whittaker.lartigue@gmail.com                                                                        |
|collie.jalisi@gmail.com                                                                             |
|sula.belfer@gmail.com                                                                               |
|case.ciotti@gmail.com                                                                               |
|caesar.foss@gmail.com                                                                               |
|winny.netter@gmail.com                                                                              |
|anais.ferry@gmail.com                                                                               |
|kailey.schiferl@gmail.com                                                                           |
|pearce.vieth@gmail.com                                                                              |
|hunt.noyes@gmail.com                                                                                |
|jyoti.onley@gmail.com                                                                               |
|shirleen.grean@gmail.com                                                                            |
|lawton.chiarotti@gmail.com                                                                          |
|remus.rodgers@gmail.com                                                                             |
|arvind.williams@gmail.com                                                                           |
|myriam.roll@gmail.com                                                                               |
|abbe.carriero@gmail.com                                                                             |
|florrie.volfson@gmail.com                                                                           |
|armond.troiani@gmail.com                                                                            |
|janeva.brose@gmail.com                                                                              |
|benoite.maynadier@gmail.com                                                                         |
|keely.monastero@gmail.com                                                                           |
|astrix.burger@gmail.com                                                                             |
|vasili.makepeace@gmail.com                                                                          |
|averil.poulios@gmail.com                                                                            |
|ronen.quinn@gmail.com                                                                               |
|orton.marvin@gmail.com                                                                              |
|almira.evangelous@gmail.com                                                                         |
|blancha.moebus@gmail.com                                                                            |
|lindy.kennedy@gmail.com                                                                             |
|jinny.chambers@gmail.com                                                                            |
|hettie.lokos@gmail.com                                                                              |
|devon.barns@gmail.com                                                                               |
|adrian.spoonerow@gmail.com                                                                          |
|doralia.resnik@gmail.com                                                                            |
|elyse.jaworski@gmail.com                                                                            |
|margarita.duvivier@gmail.com                                                                        |
|alexine.shepherd@gmail.com                                                                          |
|sanders.brecher@gmail.com                                                                           |
|abdullah.griswald@gmail.com                                                                         |
|wilek.moramarco@gmail.com                                                                           |
|daisi.zapata@gmail.com                                                                              |
|sherman.boos@gmail.com                                                                              |
|clareta.browdy@gmail.com                                                                            |
|reggy.patino@gmail.com                                                                              |
|jobye.mcfeeley@gmail.com                                                                            |
|dorena.papineau@gmail.com                                                                           |
|tildi.ambrose@gmail.com                                                                             |
|willow.kiplagat@gmail.com                                                                           |
|samson.narahara@gmail.com                                                                           |
|austin.checa@gmail.com                                                                              |
|percy.seto@gmail.com                                                                                |
|neville.leak@gmail.com                                                                              |
|agnesse.wetterstrom@gmail.com                                                                       |
|lizzie.da_silva@gmail.com                                                                           |
|randy.mallardi@gmail.com                                                                            |
|kalil.ferrera@gmail.com                                                                             |
|andreas.theodorescu@gmail.com                                                                       |
|rhetta.grout@gmail.com                                                                              |
|aleta.dewitt@gmail.com                                                                              |
|torrey.kalupa@gmail.com                                                                             |
|verney.james@gmail.com                                                                              |
|sutton.bernanos@gmail.com                                                                           |
|antoni.bergeron@gmail.com                                                                           |
|lin.ferme@gmail.com                                                                                 |
|ned.oehlert@gmail.com                                                                               |
|conney.nesci@gmail.com                                                                              |
|andrea.jun@gmail.com                                                                                |
|berti.pasta@gmail.com                                                                               |
|trescha.odryna@gmail.com                                                                            |
|wendy.tesla@gmail.com                                                                               |
|tobie.swathi@gmail.com                                                                              |
|quillan.magubane@gmail.com                                                                          |
|jeremy.abbott@gmail.com                                                                             |
|britte.maldonardo@gmail.com                                                                         |
|rosanna.lewis-fernandez@gmail.com                                                                   |
|florette.burdick@gmail.com                                                                          |
|sebastiano.vespasian@gmail.com                                                                      |
|richie.tewksbury@gmail.com                                                                          |
|roderic.fitch@gmail.com                                                                             |
|glynis.colombo@gmail.com                                                                            |
|katherina.bollino@gmail.com                                                                         |
|benni.arduini@gmail.com                                                                             |
|colin.plewis@gmail.com                                                                              |
|giovanna.thauer@gmail.com                                                                           |
|federico.finkelstein@gmail.com                                                                      |
|nola.pothier@gmail.com                                                                              |
|jorry.woolfolk@gmail.com                                                                            |
|charmion.gonet@gmail.com                                                                            |
|leigha.jenner@gmail.com                                                                             |
|emilee.perrin@gmail.com                                                                             |
|cherri.lissy@gmail.com                                                                              |
|marla.belisle@gmail.com                                                                             |
|mort.hartle@gmail.com                                                                               |
|karole.van_edema@gmail.com                                                                          |
|edeline.ingrassia@gmail.com                                                                         |
|chiquita.linz@gmail.com                                                                             |
|garret.leder@gmail.com                                                                              |
|magdalene.eckhaus@gmail.com                                                                         |
|hilde.leurgans@gmail.com                                                                            |
|zarla.hambly@gmail.com                                                                              |
|fenelia.pridham@gmail.com                                                                           |
|roberta.horn@gmail.com                                                                              |
|vallie.washburn@gmail.com                                                                           |
|jeromy.pezzulli@gmail.com                                                                           |
|jessie.brecher@gmail.com                                                                            |
|gerta.boretti@gmail.com                                                                             |
|norbert.zaldivar@gmail.com                                                                          |
|laurent.bernheimer@gmail.com                                                                        |
|dick.stoto@gmail.com                                                                                |
|demetre.todaro@gmail.com                                                                            |
|ofilia.glegg@gmail.com                                                                              |
|michal.lavoie@gmail.com                                                                             |
|pace.hembrow@gmail.com                                                                              |
|samuella.moan@gmail.com                                                                             |
|sophronia.athanassakis@gmail.com                                                                    |
|chicky.cowen@gmail.com                                                                              |
|vasily.hightower@gmail.com                                                                          |
|allan.broom@gmail.com                                                                               |
|gerri.klint@gmail.com                                                                               |
|clayborn.kozlova@gmail.com                                                                          |
|rudolf.pacheco@gmail.com                                                                            |
|hirsch.ingrassia@gmail.com                                                                          |
|chuck.karlen@gmail.com                                                                              |
|romona.shankland@gmail.com                                                                          |
|helaina.chui@gmail.com                                                                              |
|les.titus@gmail.com                                                                                 |
|elwyn.cammilleri@gmail.com                                                                          |
|brock.burns@gmail.com                                                                               |
|jean-francois.colvin@gmail.com                                                                      |
|maris.ibsen@gmail.com                                                                               |
|roarke.findley@gmail.com                                                                            |
|vivianne.whitesides@gmail.com                                                                       |
|beauregard.bellhouse@gmail.com                                                                      |
|cameron.trungpa@gmail.com                                                                           |
|lil.bommarito@gmail.com                                                                             |
|tudor.bailey@gmail.com                                                                              |
|roz.trifiro@gmail.com                                                                               |
|nita.quigley@gmail.com                                                                              |
|kingsly.etter@gmail.com                                                                             |
|elwood.arduini@gmail.com                                                                            |
|danie.fischer@gmail.com                                                                             |
|marcella.renjifo@gmail.com                                                                          |
|joelie.oday@gmail.com                                                                               |
|lisetta.onderdonk@gmail.com                                                                         |
|lanna.ingrao@gmail.com                                                                              |
|minni.rossborough@gmail.com                                                                         |
|bonita.caine@gmail.com                                                                              |
|silvano.tobler@gmail.com                                                                            |
|elwira.rosen@gmail.com                                                                              |
|wilbert.orel@gmail.com                                                                              |
|kamillah.derosa@gmail.com                                                                           |
|thedric.haggerty@gmail.com                                                                          |
|cristabel.witherell@gmail.com                                                                       |
|charleen.mcclean@gmail.com                                                                          |
|olivette.gonet@gmail.com                                                                            |
|pepe.tepfer@gmail.com                                                                               |
|ally.otun@gmail.com                                                                                 |
|darci.takemoto@gmail.com                                                                            |
|jakob.plous@gmail.com                                                                               |
|nolie.lipkin@gmail.com                                                                              |
|torre.leoni@gmail.com                                                                               |
|ulrike.martel@gmail.com                                                                             |
|demetri.henle@gmail.com                                                                             |
|dannie.tulin@gmail.com                                                                              |
|rosina.dosi@gmail.com                                                                               |
|jacenta.sorg@gmail.com                                                                              |
|hetti.runnalls@gmail.com                                                                            |
|flem.tofegaard@gmail.com                                                                            |
|georgie.cuccurullo@gmail.com                                                                        |
|roland.martinotti@gmail.com                                                                         |
|willy.babetski@gmail.com                                                                            |
|fredra.girvin@gmail.com                                                                             |
|theodor.dumornay@gmail.com                                                                          |
|sturgis.camiel@gmail.com                                                                            |
|tim.sauer@gmail.com                                                                                 |
|berchtold.scales@gmail.com                                                                          |
|shanna.shaumyan@gmail.com                                                                           |
|feodora.van_ballegooijen@gmail.com                                                                  |
|hernando.desmaisons@gmail.com                                                                       |
|rupert.sanicola@gmail.com                                                                           |
|corenda.dobrowolski@gmail.com                                                                       |
|gusty.oshea@gmail.com                                                                               |
|dinny.centore@gmail.com                                                                             |
|marven.mcwade@gmail.com                                                                             |
|madel.macfarquhar@gmail.com                                                                         |
|roxie.cerva@gmail.com                                                                               |
|jaquenette.allen@gmail.com                                                                          |
|remus.dowsland@gmail.com                                                                            |
|rafael.runyan@gmail.com                                                                             |
|louisa.crauel@gmail.com                                                                             |
|sandor.breyman@gmail.com                                                                            |
|kin.migliassi@gmail.com                                                                             |
|john-patrick.shartraud@gmail.com                                                                    |
|donnie.reisenfeld@gmail.com                                                                         |
|kristen.khalil@gmail.com                                                                            |
|adena.gevelinger@gmail.com                                                                          |
|hebert.opray@gmail.com                                                                              |
|janean.xia@gmail.com                                                                                |
|bee.mccall@gmail.com                                                                                |
|willy.bernardi@gmail.com                                                                            |
|dallas.iriye@gmail.com                                                                              |
|jeniece.feldmann@gmail.com                                                                          |
|gustaf.septimus@gmail.com                                                                           |
|smith.sherman@gmail.com                                                                             |
|audie.phelan@gmail.com                                                                              |
|kristal.weissglass@gmail.com                                                                        |
|matthias.pasternak@gmail.com                                                                        |
|roderigo.vorperian@gmail.com                                                                        |
|sid.sedgwick@gmail.com                                                                              |
|lorain.dickerson@gmail.com                                                                          |
|joanna.boehme@gmail.com                                                                             |
|silvio.jeka@gmail.com                                                                               |
|hasty.housman@gmail.com                                                                             |
|derek.pasta@gmail.com                                                                               |
|carissa.collura@gmail.com                                                                           |
|katheleen.jalisi@gmail.com                                                                          |
|duffy.squires@gmail.com                                                                             |
|vida.penkethman@gmail.com                                                                           |
|mommy.suchoff@gmail.com                                                                             |
|ekaterina.mccormack@gmail.com                                                                       |
|hayden.mayer@gmail.com                                                                              |
|nathan.hurtubise@gmail.com                                                                          |
|iago.apte@gmail.com                                                                                 |
|cloris.stec@gmail.com                                                                               |
|teriann.spinoza@gmail.com                                                                           |
|renaud.welsh-carroll@gmail.com                                                                      |
|joelly.overboe@gmail.com                                                                            |
|dory.guyton@gmail.com                                                                               |
|gretta.pestana@gmail.com                                                                            |
|rosemarie.blackett@gmail.com                                                                        |
|shandy.alon@gmail.com                                                                               |
|waite.yutang@gmail.com                                                                              |
|thane.halpern@gmail.com                                                                             |
|roderich.kerouac@gmail.com                                                                          |
|gerrilee.krotki@gmail.com                                                                           |
|terri-jo.sigalot@gmail.com                                                                          |
|marissa.perkins@gmail.com                                                                           |
|merlin.hotopp@gmail.com                                                                             |
|terza.mckenzie@gmail.com                                                                            |
|elisha.fulwiler@gmail.com                                                                           |
|cleveland.glenister@gmail.com                                                                       |
|saw.beynart@gmail.com                                                                               |
|tessa.buckholts@gmail.com                                                                           |
|marlo.goss@gmail.com                                                                                |
|hollyanne.iqbal@gmail.com                                                                           |
|sherry.bateman@gmail.com                                                                            |
|carlyle.snell@gmail.com                                                                             |
|alwin.free@gmail.com                                                                                |
|chase.shinagel@gmail.com                                                                            |
|ella.bourque@gmail.com                                                                              |
|ruella.hackett@gmail.com                                                                            |
|winton.kassman@gmail.com                                                                            |
|violetta.pantilla@gmail.com                                                                         |
|lester.livolsi@gmail.com                                                                            |
|ortensia.glaeser@gmail.com                                                                          |
|ana.petracca@gmail.com                                                                              |
|josee.brandin@gmail.com                                                                             |
|fawnia.wooten@gmail.com                                                                             |
|grover.nightingale@gmail.com                                                                        |
|phillis.schroth@gmail.com                                                                           |
|justine.de_lorenzo@gmail.com                                                                        |
|luisa.weinberg@gmail.com                                                                            |
|fernanda.petre@gmail.com                                                                            |
|karlene.mijovic@gmail.com                                                                           |
|sullivan.shepard@gmail.com                                                                          |
|alessandra.ansley@gmail.com                                                                         |
|harcourt.kassower@gmail.com                                                                         |
|vibhu.holloway@gmail.com                                                                            |
|thorny.macneill@gmail.com                                                                           |
|stavros.gaer@gmail.com                                                                              |
|hamish.schaffer@gmail.com                                                                           |
|hersh.grosz@gmail.com                                                                               |
|genvieve.romberger@gmail.com                                                                        |
|creighton.sauber@gmail.com                                                                          |
|tome.tome@gmail.com                                                                                 |
|tory.lennon@gmail.com                                                                               |
|maximilian.longstaff@gmail.com                                                                      |
|sherlock.flinck@gmail.com                                                                           |
|burt.lafrance@gmail.com                                                                             |
|leone.grove@gmail.com                                                                               |
|brigitte.newberry@gmail.com                                                                         |
|min.mackinnon@gmail.com                                                                             |
|carie.mcnicol@gmail.com                                                                             |
|holli.otun@gmail.com                                                                                |
|cecily.weinberg@gmail.com                                                                           |
|lynde.ruskin@gmail.com                                                                              |
|myrlene.yelon@gmail.com                                                                             |
|fleming.orchard@gmail.com                                                                           |
|esme.manz@gmail.com                                                                                 |
|carol.oehlert@gmail.com                                                                             |
|meade.hoehler@gmail.com                                                                             |
|alley.peacock@gmail.com                                                                             |
|somerset.stossel@gmail.com                                                                          |
|corri.unger@gmail.com                                                                               |
|ender.willicombe@gmail.com                                                                          |
|gabrielle.meyers@gmail.com                                                                          |
|fiona.kamal@gmail.com                                                                               |
|elvin.axelrod@gmail.com                                                                             |
|armond.fuerst@gmail.com                                                                             |
|rudie.duganzich@gmail.com                                                                           |
|trina.hettlinger@gmail.com                                                                          |
|elnar.soth@gmail.com                                                                                |
|armond.cheverie@gmail.com                                                                           |
|dickey.rimbach@gmail.com                                                                            |
|wakefield.fung@gmail.com                                                                            |
|danie.klingensmith@gmail.com                                                                        |
|toddy.mcisaac@gmail.com                                                                             |
|alvin.kovaks@gmail.com                                                                              |
|sheppard.stedman@gmail.com                                                                          |
|abbey.cahill@gmail.com                                                                              |
|charles.marsh@gmail.com                                                                             |
|leigh.ingalls@gmail.com                                                                             |
|ivonne.panayotou@gmail.com                                                                          |
|nikos.helfer@gmail.com                                                                              |
|ranee.burkett@gmail.com                                                                             |
|cristabel.mueller@gmail.com                                                                         |
|min.gollamudi@gmail.com                                                                             |
|kendrick.remundo@gmail.com                                                                          |
|munroe.barnard@gmail.com                                                                            |
|kennedy.pagano@gmail.com                                                                            |
|barty.heil@gmail.com                                                                                |
|tabbie.pocobene@gmail.com                                                                           |
|kimmie.arcus@gmail.com                                                                              |
|leah.kohn@gmail.com                                                                                 |
|geri.mcneill@gmail.com                                                                              |
|zonda.holoien@gmail.com                                                                             |
|hiro.hightower@gmail.com                                                                            |
|englebart.sczech@gmail.com                                                                          |
|sibylle.raines@gmail.com                                                                            |
|milt.fukui@gmail.com                                                                                |
|marlane.savio@gmail.com                                                                             |
|parnell.armitage@gmail.com                                                                          |
|worthington.jin@gmail.com                                                                           |
|pavia.guthke@gmail.com                                                                              |
|trevar.dziejman@gmail.com                                                                           |
|shanta.duran@gmail.com                                                                              |
|mitchel.wong@gmail.com                                                                              |
|peirce.rowse@gmail.com                                                                              |
|jacintha.jenneve@gmail.com                                                                          |
|pen.feltner@gmail.com                                                                               |
|wilhelmina.lanzit@gmail.com                                                                         |
|gonzalo.ahlers@gmail.com                                                                            |
|meier.perloff@gmail.com                                                                             |
|lucas.caputo@gmail.com                                                                              |
|shurwood.schacter@gmail.com                                                                         |
|genna.pillsworth@gmail.com                                                                          |
|lemar.maybank@gmail.com                                                                             |
|moyra.abel@gmail.com                                                                                |
|aurlie.novoa@gmail.com                                                                              |
|joselyn.cvek@gmail.com                                                                              |
|francine.schnur@gmail.com                                                                           |
|cammy.mortilla@gmail.com                                                                            |
|bride.oglesby@gmail.com                                                                             |
|doyle.markatos@gmail.com                                                                            |
|flinn.mick@gmail.com                                                                                |
|henrik.baranowska-kortylewi@gmail.com                                                               |
|hy.berlioz@gmail.com                                                                                |
|blayne.sisterson@gmail.com                                                                          |
|ambrosius.toto@gmail.com                                                                            |
|adrien.chown@gmail.com                                                                              |
|horace.drayton@gmail.com                                                                            |
|christina.repp@gmail.com                                                                            |
|devonna.calverley@gmail.com                                                                         |
|julieta.reza@gmail.com                                                                              |
|dick.coulson@gmail.com                                                                              |
|angel.syverson@gmail.com                                                                            |
|quent.demong@gmail.com                                                                              |
|bertram.major@gmail.com                                                                             |
|sonja.jutras@gmail.com                                                                              |
|angele.watkins@gmail.com                                                                            |
|sheff.mobley@gmail.com                                                                              |
|britt.fontes@gmail.com                                                                              |
|montgomery.caudry@gmail.com                                                                         |
|diannne.jost@gmail.com                                                                              |
|arvie.billings@gmail.com                                                                            |
|ava.ackerman@gmail.com                                                                              |
|alejandrina.zitkus@gmail.com                                                                        |
|renelle.berne@gmail.com                                                                             |
|veronika.yesson@gmail.com                                                                           |
|ediva.chakkalath@gmail.com                                                                          |
|thurston.granovsky@gmail.com                                                                        |
|teodor.padgett@gmail.com                                                                            |
|clementina.adler@gmail.com                                                                          |
|ferdy.chapple@gmail.com                                                                             |
|kelly.silberman@gmail.com                                                                           |
|sapphira.gilkes@gmail.com                                                                           |
|mustafa.liman@gmail.com                                                                             |
|jemie.riordan@gmail.com                                                                             |
|robert.kingdon@gmail.com                                                                            |
|lindsay.lenney@gmail.com                                                                            |
|ingaberg.desai@gmail.com                                                                            |
|bartolomei.schutte@gmail.com                                                                        |
|otto.locatelli@gmail.com                                                                            |
|barbey.seth@gmail.com                                                                               |
|marcos.stassinopolus@gmail.com                                                                      |
|lillian.talbott@gmail.com                                                                           |
|karrie.gilbert@gmail.com                                                                            |
|tedd.david@gmail.com                                                                                |
|tobe.fazio@gmail.com                                                                                |
|sue-elle.hampton@gmail.com                                                                          |
|candy.badash@gmail.com                                                                              |
|adrea.yeats@gmail.com                                                                               |
|kenyon.steigerwald@gmail.com                                                                        |
|kendre.prescod@gmail.com                                                                            |
|zack.doress@gmail.com                                                                               |
|nester.ouchark@gmail.com                                                                            |
|leeann.rosado@gmail.com                                                                             |
|tuckie.crownover@gmail.com                                                                          |
|aigneis.lockwood@gmail.com                                                                          |
|henry.askey@gmail.com                                                                               |
|rikki.schlachter@gmail.com                                                                          |
|cleveland.gerstmann@gmail.com                                                                       |
|clair.grabar@gmail.com                                                                              |
|anders.garnick@gmail.com                                                                            |
|halie.looney@gmail.com                                                                              |
|gino.alexis@gmail.com                                                                               |
|teddy.dynan@gmail.com                                                                               |
|forster.gamble@gmail.com                                                                            |
|averil.pendleton@gmail.com                                                                          |
|carlie.avrian-blajeni@gmail.com                                                                     |
|matthus.piran@gmail.com                                                                             |
|oswell.jensen@gmail.com                                                                             |
|hillery.sawtell@gmail.com                                                                           |
|gustaf.crichton@gmail.com                                                                           |
|talbert.chataway@gmail.com                                                                          |
|lisetta.tesla@gmail.com                                                                             |
|vasili.emerson@gmail.com                                                                            |
|belva.fennelly@gmail.com                                                                            |
|meryl.fandel@gmail.com                                                                              |
|garfinkel.bisi@gmail.com                                                                            |
|olva.ameden-claussen@gmail.com                                                                      |
|otis.mazzali@gmail.com                                                                              |
|nate.amiri@gmail.com                                                                                |
|sanson.theofanous@gmail.com                                                                         |
|ricardo.hotchkiss@gmail.com                                                                         |
|tate.otis@gmail.com                                                                                 |
|cherice.rawley@gmail.com                                                                            |
|judith.woodhouse@gmail.com                                                                          |
|webster.duchin@gmail.com                                                                            |
|storm.wiener@gmail.com                                                                              |
|eadie.lucas@gmail.com                                                                               |
|paulo.polya@gmail.com                                                                               |
|corrina.sperber@gmail.com                                                                           |
|lester.bickis@gmail.com                                                                             |
|yance.stiles@gmail.com                                                                              |
|hans-peter.suttell@gmail.com                                                                        |
|shela.darcangelo@gmail.com                                                                          |
|dell.gori@gmail.com                                                                                 |
|lorenza.scanlan@gmail.com                                                                           |
|neel.kenward@gmail.com                                                                              |
|harrison.kulldorff@gmail.com                                                                        |
|dorolice.hapuarachchi@gmail.com                                                                     |
|brody.yamamoto@gmail.com                                                                            |
|tiertza.abernathy@gmail.com                                                                         |
|shelly.gornick@gmail.com                                                                            |
|tan.chernoff@gmail.com                                                                              |
|micheil.mcdougall@gmail.com                                                                         |
|elijah.kosakowski@gmail.com                                                                         |
|algernon.meselson@gmail.com                                                                         |
|merlina.van_speybroeck@gmail.com                                                                    |
|kelcie.krockenberger@gmail.com                                                                      |
|prentiss.holliday@gmail.com                                                                         |
|edie.esmond@gmail.com                                                                               |
|collette.vaut@gmail.com                                                                             |
|brady.pun@gmail.com                                                                                 |
|alanna.clipper@gmail.com                                                                            |
|norri.yoshino@gmail.com                                                                             |
|magdalene.rey@gmail.com                                                                             |
|zarla.tilton@gmail.com                                                                              |
|barron.ekiert@gmail.com                                                                             |
|errol.bradach@gmail.com                                                                             |
|raf.bolick@gmail.com                                                                                |
|charlton.osullivan-snow@gmail.com                                                                   |
|debee.chung@gmail.com                                                                               |
|bailie.wiffen@gmail.com                                                                             |
|wiley.guerriero@gmail.com                                                                           |
|yettie.fitzgibbon@gmail.com                                                                         |
|esmerelda.lauro@gmail.com                                                                           |
|vic.vomacka@gmail.com                                                                               |
|roxy.dapozzo@gmail.com                                                                              |
|wilt.riedo@gmail.com                                                                                |
|benedict.burpee@gmail.com                                                                           |
|hussein.toomey@gmail.com                                                                            |
|camala.pudritz@gmail.com                                                                            |
|roderick.konishi@gmail.com                                                                          |
|loren.kuliopulos@gmail.com                                                                          |
|blithe.ramian@gmail.com                                                                             |
|giselle.cerbone@gmail.com                                                                           |
|stephine.pang@gmail.com                                                                             |
|carmelle.pai@gmail.com                                                                              |
|nananne.jia@gmail.com                                                                               |
|ingemar.rudemo@gmail.com                                                                            |
|vick.brogna@gmail.com                                                                               |
|joey.arkhipova@gmail.com                                                                            |
|kaila.diana@gmail.com                                                                               |
|mathilde.stepkowski@gmail.com                                                                       |
|fonzie.angers@gmail.com                                                                             |
|malvina.corradetti@gmail.com                                                                        |
|rennie.purdie@gmail.com                                                                             |
|ulrica.humez@gmail.com                                                                              |
|kalle.iralu@gmail.com                                                                               |
|starla.vilas-boas@gmail.com                                                                         |
|eugenia.shraiman@gmail.com                                                                          |
|royce.thaler@gmail.com                                                                              |
|clementina.rivas@gmail.com                                                                          |
|allsun.skocpol@gmail.com                                                                            |
|clare.bjorkoy@gmail.com                                                                             |
|britte.orasi@gmail.com                                                                              |
|stormy.avery@gmail.com                                                                              |
|cyrus.hamming@gmail.com                                                                             |
|johnnie.verdine@gmail.com                                                                           |
|dena.lakin@gmail.com                                                                                |
|michel.sennett@gmail.com                                                                            |
|margi.palayoor@gmail.com                                                                            |
|fifi.gregg@gmail.com                                                                                |
|thain.syrus@gmail.com                                                                               |
|brandea.hosono@gmail.com                                                                            |
|pearline.prelich@gmail.com                                                                          |
|gavin.castigliego@gmail.com                                                                         |
|mayda.mauzy@gmail.com                                                                               |
|nathaniel.guarino@gmail.com                                                                         |
|susann.coakley@gmail.com                                                                            |
|christorpher.knypstra@gmail.com                                                                     |
|ambrosius.goodearl@gmail.com                                                                        |
|kirby.chatalbash@gmail.com                                                                          |
|kevina.sutter@gmail.com                                                                             |
|natassia.wigner@gmail.com                                                                           |
|arlinda.schulze@gmail.com                                                                           |
|laurene.dobrowolski@gmail.com                                                                       |
|andee.lovelady@gmail.com                                                                            |
|jessi.pardo_de_zela@gmail.com                                                                       |
|belita.mcniece@gmail.com                                                                            |
|murphy.varley@gmail.com                                                                             |
|axel.gruner@gmail.com                                                                               |
|piet.von_goethe@gmail.com                                                                           |
|tyson.belich@gmail.com                                                                              |
|winfred.gersho@gmail.com                                                                            |
|bernete.lyngley@gmail.com                                                                           |
|micky.lax@gmail.com                                                                                 |
|graehme.thomson@gmail.com                                                                           |
|goose.velasquez@gmail.com                                                                           |
|alvera.collat@gmail.com                                                                             |
|gypsy.purzycki@gmail.com                                                                            |
|hakim.medina@gmail.com                                                                              |
|jeniece.siever@gmail.com                                                                            |
|mattie.duganzich@gmail.com                                                                          |
|hallam.townsend@gmail.com                                                                           |
|lilias.lewis-fernandez@gmail.com                                                                    |
|carena.thibault@gmail.com                                                                           |
|joseph.rifkin@gmail.com                                                                             |
|koressa.oh@gmail.com                                                                                |
|thaddus.mcleon@gmail.com                                                                            |
|marcie.york@gmail.com                                                                               |
|bartholomeus.valsecchi@gmail.com                                                                    |
|clarey.kuchera-morin@gmail.com                                                                      |
|lucio.tamburlaine@gmail.com                                                                         |
|britt.brecht@gmail.com                                                                              |
|fabrice.yoffe@gmail.com                                                                             |
|ramonda.parkinson@gmail.com                                                                         |
|dix.stromberg@gmail.com                                                                             |
|barri.tandler@gmail.com                                                                             |
|hilliard.macauley@gmail.com                                                                         |
|brit.blew@gmail.com                                                                                 |
|krista.child@gmail.com                                                                              |
|mike.sykes@gmail.com                                                                                |
|beatrisa.tretter@gmail.com                                                                          |
|dov.westling@gmail.com                                                                              |
|stanton.loader@gmail.com                                                                            |
|mel.liske@gmail.com                                                                                 |
|garwin.nobile@gmail.com                                                                             |
|algernon.griliches@gmail.com                                                                        |
|hans.markandya@gmail.com                                                                            |
|jess.cutler@gmail.com                                                                               |
|wolf.eales@gmail.com                                                                                |
|luana.calotychos@gmail.com                                                                          |
|jordy.chapin@gmail.com                                                                              |
|modestia.raferty@gmail.com                                                                          |
|nickey.liem@gmail.com                                                                               |
|corabel.archontis@gmail.com                                                                         |
|conroy.maguire@gmail.com                                                                            |
|pet.grubb@gmail.com                                                                                 |
|constantine.metts@gmail.com                                                                         |
|sallyann.bartholet@gmail.com                                                                        |
|angel.colella@gmail.com                                                                             |
|loren.kargard@gmail.com                                                                             |
|sharron.curley@gmail.com                                                                            |
|alvin.litvak@gmail.com                                                                              |
|sparky.stromberg@gmail.com                                                                          |
|avis.margalit@gmail.com                                                                             |
|anatollo.vatter@gmail.com                                                                           |
|evvie.stanger@gmail.com                                                                             |
|leland.bello@gmail.com                                                                              |
|amelie.dyer@gmail.com                                                                               |
|therine.levinson@gmail.com                                                                          |
|keith.pidgeon@gmail.com                                                                             |
|adams.nathan@gmail.com                                                                              |
